{
  "project_info": {
    "project_number": "883772061735",
    "firebase_url": "https://twitchnau.firebaseio.com",
    "project_id": "twitchnau",
    "storage_bucket": "twitchnau.appspot.com"
  },
  "client": [
    {
      "client_info": {
        "mobilesdk_app_id": "1:883772061735:android:43ee1d38ad84c821",
        "android_client_info": {
          "package_name": "nau.twitch"
        }
      },
      "oauth_client": [
        {
          "client_id": "883772061735-42ol3vjveop60g7m0gm5phcov1uc3oge.apps.googleusercontent.com",
          "client_type": 1,
          "android_info": {
            "package_name": "nau.twitch",
            "certificate_hash": "9b65e54813e85d815697a84572c61ad8c26b54db"
          }
        },
        {
          "client_id": "883772061735-e30bu8erhm6eh762a0plpa32va0luitv.apps.googleusercontent.com",
          "client_type": 3
        }
      ],
      "api_key": [
        {
          "current_key": "AIzaSyBnbFY2z3Tl7GIfvmu4KctfcsxCh1mpXcA"
        }
      ],
      "services": {
        "analytics_service": {
          "status": 1
        },
        "appinvite_service": {
          "status": 2,
          "other_platform_oauth_client": [
            {
              "client_id": "883772061735-e30bu8erhm6eh762a0plpa32va0luitv.apps.googleusercontent.com",
              "client_type": 3
            }
          ]
        },
        "ads_service": {
          "status": 2
        }
      }
    }
  ],
  "configuration_version": "1"
}